…
  invisible()
}

Franchise()
```

    ## # A tibble: 39 x 8
    ##    franchiseId firstSeasonId fullName   lastSeasonId mostRecentTeamId teamAbbrev
    ##          <int>         <int> <chr>             <int>            <int> <chr>     
    ##  1           1      19171918 Montréal ~           NA                8 MTL       
    ##  2           2      19171918 Montreal ~     19171918               41 MWN       
    ##  3           3      19171918 St. Louis~     19341935               45 SLE       
    ##  4           4      19191920 Hamilton ~     19241925               37 HAM       
    ##  5           5      19171918 Toronto M~           NA               10 TOR       
    ##  6           6      19241925 Boston Br~           NA                6 BOS       
    ##  7           7      19241925 Montreal ~     19371938               43 MMR       
    ##  8           8      19251926 Brooklyn ~     19411942               51 BRK       
    ##  9           9      19251926 Philadelp~     19301931               39 QUA       
    ## 10          10      19261927 New York ~           NA                3 NYR       
    ## # ... with 29 more rows, and 2 more variables: teamCommonName <chr>,
    ## #   teamPlaceName <chr>
…
  invisible()
}

FranchiseTotals()
```

    ## # A tibble: 105 x 29
    ##    activeFranchise firstSeasonId franchiseId gameTypeId gamesPlayed goalsAgainst
    ##    <lgl>                   <int>       <int>      <int>       <int>        <int>
    ##  1 TRUE                 19821983          23          2        2993         8902
    ##  2 TRUE                 19821983          23          3         257          634
    ##  3 TRUE                 19721973          22          2        3788        11907
    ##  4 TRUE                 19721973          22          3         309          897
    ##  5 TRUE                 19261927          10          2        6560        20020
    ##  6 TRUE                 19261927          10          3         518         1447
    ##  7 TRUE                 19671968          16          3         449         1332
    ##  8 TRUE                 19671968          16          2        4171        12255
    ##  9 TRUE                 19671968          17          2        4171        14049
    ## 10 TRUE                 19671968          17          3         391         1131
    ## # ... with 95 more rows, and 23 more variables: goalsFor <int>,
    ## #   homeLosses <int>, homeOvertimeLosses <int>, homeTies <int>, homeWins <int>,
    ## #   lastSeasonId <int>, losses <int>, overtimeLosses <int>,
    ## #   penaltyMinutes <int>, pointPctg <dbl>, points <int>, roadLosses <int>,
    ## #   roadOvertimeLosses <int>, roadTies <int>, roadWins <int>,
    ## #   shootoutLosses <int>, shootoutWins <int>, shutouts <int>, teamId <int>,
    ## #   teamName <chr>, ties <int>, teamAbbrev <chr>, wins <int>

``` r
FranchiseTotals(6)
```

    ## # A tibble: 105 x 29
    ##    activeFranchise firstSeasonId franchiseId gameTypeId gamesPlayed goalsAgainst
    ##    <lgl>                   <int>       <int>      <int>       <int>        <int>
    ##  1 TRUE                 19821983          23          2        2993         8902
    ##  2 TRUE                 19821983          23          3         257          634
    ##  3 TRUE                 19721973          22          2        3788        11907
    ##  4 TRUE                 19721973          22          3         309          897
    ##  5 TRUE                 19261927          10          2        6560        20020
    ##  6 TRUE                 19261927          10          3         518         1447
    ##  7 TRUE                 19671968          16          3         449         1332
    ##  8 TRUE                 19671968          16          2        4171        12255
    ##  9 TRUE                 19671968          17          2        4171        14049
    ## 10 TRUE                 19671968          17          3         391         1131
    ## # ... with 95 more rows, and 23 more variables: goalsFor <int>,
    ## #   homeLosses <int>, homeOvertimeLosses <int>, homeTies <int>, homeWins <int>,
    ## #   lastSeasonId <int>, losses <int>, overtimeLosses <int>,
    ## #   penaltyMinutes <int>, pointPctg <dbl>, points <int>, roadLosses <int>,
    ## #   roadOvertimeLosses <int>, roadTies <int>, roadWins <int>,
    ## #   shootoutLosses <int>, shootoutWins <int>, shutouts <int>, teamId <int>,
    ## #   teamName <chr>, ties <int>, teamAbbrev <chr>, wins <int>
…
  invisible()
}

GoalieRecords(6)
```

    ## # A tibble: 51 x 28
    ##    activePlayer firstName franchiseId fullName   gameTypeId gamesPlayed lastName
    ##    <lgl>        <chr>           <int> <chr>           <int>       <int> <chr>   
    ##  1 FALSE        Yves                6 Boston Br~          2           8 Belanger
    ##  2 FALSE        Daniel              6 Boston Br~          2           8 Berthia~
    ##  3 FALSE        Craig               6 Boston Br~          2          35 Billing~
    ##  4 FALSE        Jon                 6 Boston Br~          2          57 Casey   
    ##  5 FALSE        Tim                 6 Boston Br~          2           2 Cheveld~
    ##  6 FALSE        Gilles              6 Boston Br~          2         277 Gilbert 
    ##  7 FALSE        Ron                 6 Boston Br~          2          40 Grahame 
    ##  8 FALSE        Jeff                6 Boston Br~          2          18 Hackett 
    ##  9 FALSE        Doug                6 Boston Br~          2         154 Keans   
    ## 10 FALSE        Rejean              6 Boston Br~          2         183 Lemelin 
    ## # ... with 41 more rows, and 21 more variables: losses <int>,
    ## #   mostGoalsAgainstDates <chr>, mostGoalsAgainstOneGame <int>,
    ## #   mostSavesDates <chr>, mostSavesOneGame <int>, mostShotsAgainstDates <chr>,
    ## #   mostShotsAgainstOneGame <int>, mostShutoutsOneSeason <int>,
    ## #   mostShutoutsSeasonIds <chr>, mostWinsOneSeason <int>,
    ## #   mostWinsSeasonIds <chr>, overtimeLosses <int>, playerId <int>,
    ## #   positionCode <chr>, rookieGamesPlayed <int>, rookieShutouts <int>,
    ## #   rookieWins <int>, seasons <int>, shutouts <int>, ties <int>, wins <int>
…
  invisible()
}

SkaterRecords(6)
```

    ## # A tibble: 918 x 30
    ##    activePlayer assists firstName franchiseId fullName    gameTypeId gamesPlayed
    ##    <lgl>          <int> <chr>           <int> <chr>            <int>       <int>
    ##  1 FALSE              0 Rick                6 Boston Bru~          2           1
    ##  2 FALSE              1 John                6 Boston Bru~          2           6
    ##  3 FALSE              3 Barry               6 Boston Bru~          2          14
    ##  4 FALSE              0 Steve               6 Boston Bru~          2           1
    ##  5 FALSE              2 Murray              6 Boston Bru~          2          15
    ##  6 FALSE              0 Stan                6 Boston Bru~          2           7
    ##  7 FALSE              2 Bobby               6 Boston Bru~          2           8
    ##  8 FALSE              0 Fred                6 Boston Bru~          2           2
    ##  9 FALSE              0 Phil                6 Boston Bru~          2           8
    ## 10 FALSE              5 Don                 6 Boston Bru~          2           6
    ## # ... with 908 more rows, and 23 more variables: goals <int>, lastName <chr>,
    ## #   mostAssistsGameDates <chr>, mostAssistsOneGame <int>,
    ## #   mostAssistsOneSeason <int>, mostAssistsSeasonIds <chr>,
    ## #   mostGoalsGameDates <chr>, mostGoalsOneGame <int>, mostGoalsOneSeason <int>,
    ## #   mostGoalsSeasonIds <chr>, mostPenaltyMinutesOneSeason <int>,
    ## #   mostPenaltyMinutesSeasonIds <chr>, mostPointsGameDates <chr>,
    ## #   mostPointsOneGame <int>, mostPointsOneSeason <int>,
    ## #   mostPointsSeasonIds <chr>, penaltyMinutes <int>, playerId <int>,
    ## #   points <int>, positionCode <chr>, rookieGamesPlayed <int>,
    ## #   rookiePoints <int>, seasons <int>

``` r
SkaterRecords(23)
```

    ## # A tibble: 531 x 30
    ##    activePlayer assists firstName franchiseId fullName    gameTypeId gamesPlayed
    ##    <lgl>          <int> <chr>           <int> <chr>            <int>       <int>
    ##  1 FALSE              0 Mike               23 New Jersey~          2          17
    ##  2 FALSE              3 Les                23 New Jersey~          2           6
    ##  3 FALSE              6 Bill               23 New Jersey~          2          27
    ##  4 FALSE              2 Doug               23 New Jersey~          2           6
    ##  5 FALSE              2 Glen               23 New Jersey~          2          11
    ##  6 FALSE              1 Don                23 New Jersey~          2           9
    ##  7 FALSE              2 Timo               23 New Jersey~          2          20
    ##  8 FALSE              0 Mike               23 New Jersey~          2           1
    ##  9 FALSE              2 Don                23 New Jersey~          2          11
    ## 10 FALSE              0 Jim                23 New Jersey~          2           3
    ## # ... with 521 more rows, and 23 more variables: goals <int>, lastName <chr>,
    ## #   mostAssistsGameDates <chr>, mostAssistsOneGame <int>,
    ## #   mostAssistsOneSeason <int>, mostAssistsSeasonIds <chr>,
    ## #   mostGoalsGameDates <chr>, mostGoalsOneGame <int>, mostGoalsOneSeason <int>,
    ## #   mostGoalsSeasonIds <chr>, mostPenaltyMinutesOneSeason <int>,
    ## #   mostPenaltyMinutesSeasonIds <chr>, mostPointsGameDates <chr>,
    ## #   mostPointsOneGame <int>, mostPointsOneSeason <int>,
    ## #   mostPointsSeasonIds <chr>, penaltyMinutes <int>, playerId <int>,
    ## #   points <int>, positionCode <chr>, rookieGamesPlayed <int>,
…
  invisible()
  
}

StatsNHL(data = "franch")
```

    ## # A tibble: 39 x 8
    ##    franchiseId firstSeasonId fullName   lastSeasonId mostRecentTeamId teamAbbrev
    ##          <int>         <int> <chr>             <int>            <int> <chr>     
    ##  1           1      19171918 Montréal ~           NA                8 MTL       
    ##  2           2      19171918 Montreal ~     19171918               41 MWN       
    ##  3           3      19171918 St. Louis~     19341935               45 SLE       
    ##  4           4      19191920 Hamilton ~     19241925               37 HAM       
    ##  5           5      19171918 Toronto M~           NA               10 TOR       
    ##  6           6      19241925 Boston Br~           NA                6 BOS       
    ##  7           7      19241925 Montreal ~     19371938               43 MMR       
    ##  8           8      19251926 Brooklyn ~     19411942               51 BRK       
    ##  9           9      19251926 Philadelp~     19301931               39 QUA       
    ## 10          10      19261927 New York ~           NA                3 NYR       
    ## # ... with 29 more rows, and 2 more variables: teamCommonName <chr>,
    ## #   teamPlaceName <chr>

``` r
StatsNHL("totals")
```

    ## # A tibble: 105 x 29
    ##    activeFranchise firstSeasonId franchiseId gameTypeId gamesPlayed goalsAgainst
    ##    <lgl>                   <int>       <int>      <int>       <int>        <int>
    ##  1 TRUE                 19821983          23          2        2993         8902
    ##  2 TRUE                 19821983          23          3         257          634
    ##  3 TRUE                 19721973          22          2        3788        11907
    ##  4 TRUE                 19721973          22          3         309          897
    ##  5 TRUE                 19261927          10          2        6560        20020
    ##  6 TRUE                 19261927          10          3         518         1447
    ##  7 TRUE                 19671968          16          3         449         1332
    ##  8 TRUE                 19671968          16          2        4171        12255
    ##  9 TRUE                 19671968          17          2        4171        14049
    ## 10 TRUE                 19671968          17          3         391         1131
    ## # ... with 95 more rows, and 23 more variables: goalsFor <int>,
    ## #   homeLosses <int>, homeOvertimeLosses <int>, homeTies <int>, homeWins <int>,
    ## #   lastSeasonId <int>, losses <int>, overtimeLosses <int>,
    ## #   penaltyMinutes <int>, pointPctg <dbl>, points <int>, roadLosses <int>,
    ## #   roadOvertimeLosses <int>, roadTies <int>, roadWins <int>,
    ## #   shootoutLosses <int>, shootoutWins <int>, shutouts <int>, teamId <int>,
    ## #   teamName <chr>, ties <int>, teamAbbrev <chr>, wins <int>
…
``` r
StatsNHL("s.records", name = 27)
```

    ## # A tibble: 505 x 30
    ##    activePlayer assists firstName franchiseId fullName    gameTypeId gamesPlayed
    ##    <lgl>          <int> <chr>           <int> <chr>            <int>       <int>
    ##  1 FALSE              0 Jamie              27 Colorado A~          2           1
    ##  2 FALSE              0 Joel               27 Colorado A~          2           5
    ##  3 FALSE              0 Don                27 Colorado A~          2           2
    ##  4 FALSE              1 Gilles             27 Colorado A~          2           9
    ##  5 FALSE              0 Michel             27 Colorado A~          2          10
    ##  6 FALSE              5 Kim                27 Colorado A~          2          61
    ##  7 FALSE              0 Alain              27 Colorado A~          2           6
    ##  8 FALSE              3 Bobby              27 Colorado A~          2          25
    ##  9 FALSE              0 Jim                27 Colorado A~          2           1
    ## 10 FALSE              0 Dave               27 Colorado A~          2           4
    ## # ... with 495 more rows, and 23 more variables: goals <int>, lastName <chr>,
    ## #   mostAssistsGameDates <chr>, mostAssistsOneGame <int>,
    ## #   mostAssistsOneSeason <int>, mostAssistsSeasonIds <chr>,
    ## #   mostGoalsGameDates <chr>, mostGoalsOneGame <int>, mostGoalsOneSeason <int>,
    ## #   mostGoalsSeasonIds <chr>, mostPenaltyMinutesOneSeason <int>,
    ## #   mostPenaltyMinutesSeasonIds <chr>, mostPointsGameDates <chr>,
    ## #   mostPointsOneGame <int>, mostPointsOneSeason <int>,
    ## #   mostPointsSeasonIds <chr>, penaltyMinutes <int>, playerId <int>,
    ## #   points <int>, positionCode <chr>, rookieGamesPlayed <int>,
…
    ## # A tibble: 1 x 12
    ##   activeFranchise captainHistory    coachingHistory    dateAwarded directoryUrl 
    ##   <lgl>           <chr>             <chr>              <chr>       <chr>        
    ## 1 TRUE            "<ul class=\"str~ "<ul class=\"stri~ 1917-11-26~ https://www.~
    ## # ... with 7 more variables: firstSeasonId <int>, generalManagerHistory <chr>,
    ## #   heroImageUrl <chr>, mostRecentTeamId <int>, retiredNumbersSummary <chr>,
    ## #   teamAbbrev <chr>, fullName <chr>

``` r
StatsNHL("stats")
```

    ## $Team
    ## # A tibble: 32 x 17
    ##    fullName  teamAbbrev teamCommonName teamPlaceName firstYearOfPlay franchiseId
    ##    <chr>     <chr>      <chr>          <chr>         <chr>                 <int>
    ##  1 New Jers~ NJD        Devils         New Jersey    1982                     23
    ##  2 New York~ NYI        Islanders      New York      1972                     22
    ##  3 New York~ NYR        Rangers        New York      1926                     10
    ##  4 Philadel~ PHI        Flyers         Philadelphia  1967                     16
    ##  5 Pittsbur~ PIT        Penguins       Pittsburgh    1967                     17
    ##  6 Boston B~ BOS        Bruins         Boston        1924                      6
    ##  7 Buffalo ~ BUF        Sabres         Buffalo       1970                     19
    ##  8 Montréal~ MTL        Canadiens      Montréal      1909                      1
    ##  9 Ottawa S~ OTT        Senators       Ottawa        1990                     30
    ## 10 Toronto ~ TOR        Maple Leafs    Toronto       1917                      5
    ## # ... with 22 more rows, and 11 more variables: active <lgl>, venue.name <chr>,
    ## #   venue.city <chr>, venue.id <int>, venue.timeZone.id <chr>,
    ## #   venue.timeZone.offset <int>, venue.timeZone.tz <chr>, division.id <int>,
    ## #   division.name <chr>, conference.id <int>, conference.name <chr>
    ## 
    ## $Type
    ##    type.displayName type.gameType.id type.gameType.description
    ## 1 statsSingleSeason                R            Regular season
    ## 
…
